5/16/2022
…
3f08129

Han

2022-05-16

5/16/2022

Condition v Control DEG

interesting genes: “SOST”, “VEGFA”, “TNFSF11”, “TNFRSF11B”

top 20 genes in ST_DEGs

# A tibble: 19,791 x 7
   X       baseMean log2FoldChange lfcSE  stat   pvalue     padj
   <chr>      <dbl>          <dbl> <dbl> <dbl>    <dbl>    <dbl>
 1 BICC1       774.          1.87  0.199  9.36 8.01e-21 4.54e-17
 2 EPAS1      3274.         -1.81  0.193 -9.36 7.70e-21 4.54e-17
 3 PTGS2       256.          2.91  0.318  9.14 6.53e-20 2.47e-16
 4 C6orf62    2533.          1.84  0.221  8.31 9.78e-17 2.77e-13
 5 ID1        2484.         -0.996 0.122 -8.19 2.70e-16 6.13e-13
 6 PIP4K2A     451.          1.63  0.207  7.88 3.22e-15 6.10e-12
 7 CD248      3619.         -1.27  0.163 -7.77 7.68e-15 1.25e-11
 8 PPRC1       352.         -1.57  0.203 -7.73 1.11e-14 1.58e-11
 9 EIF4G1     3627.         -0.842 0.115 -7.32 2.41e-13 3.04e-10
10 MAT2A      4275.         -0.937 0.128 -7.30 2.87e-13 3.25e-10
11 ARF3        457.         -1.27  0.176 -7.19 6.57e-13 6.21e-10
12 H1-0       1232.          0.975 0.135  7.20 6.04e-13 6.21e-10
13 MARCKS     1156.          1.50  0.213  7.02 2.17e-12 1.90e- 9
14 DPYSL2     2209.          1.01  0.148  6.80 1.03e-11 8.31e- 9
15 BTBD7       306.         -1.97  0.295 -6.67 2.56e-11 1.94e- 8
16 DDX3Y       810.          0.970 0.149  6.52 6.98e-11 4.95e- 8
17 PRXL2C      216.          1.72  0.267  6.43 1.27e-10 8.47e- 8
18 ANO6        710.          1.10  0.173  6.32 2.57e-10 1.47e- 7
19 ARID1A      434.         -1.26  0.199 -6.32 2.59e-10 1.47e- 7
20 ID3        2875.         -0.719 0.114 -6.33 2.43e-10 1.47e- 7
# ... with 19,771 more rows

top 20 genes in ST_plus_DEGs

# A tibble: 19,791 x 7
   X         baseMean log2FoldChange lfcSE  stat    pvalue      padj
   <chr>        <dbl>          <dbl> <dbl> <dbl>     <dbl>     <dbl>
 1 ID1          2484.          -4.22 0.139 -30.4 3.91e-203 5.49e-199
 2 DKK1         3112.          -3.17 0.118 -26.9 5.96e-160 4.18e-156
 3 SERPINE1    16433.          -3.03 0.114 -26.5 3.38e-155 1.58e-151
 4 ID3          2875.          -2.74 0.122 -22.5 8.12e-112 2.85e-108
 5 MASP1        1650.           2.84 0.127  22.4 5.48e-111 1.54e-107
 6 RRM2         6233.          -2.40 0.111 -21.6 4.65e-103 1.09e- 99
 7 TNFRSF12A    4828.          -3.62 0.172 -21.1 1.94e- 98 3.89e- 95
 8 ENPP2        3277.           2.18 0.105  20.7 6.69e- 95 1.17e- 91
 9 UBE2C        2841.          -2.36 0.114 -20.7 8.34e- 95 1.30e- 91
10 SPHK1         710.          -4.79 0.240 -19.9 3.65e- 88 5.13e- 85
11 EDNRB        2097.           3.09 0.159  19.4 6.51e- 84 8.31e- 81
12 LUM          7995.           2.03 0.106  19.2 8.00e- 82 9.36e- 79
13 MT2A         9077.          -2.69 0.141 -19.1 5.15e- 81 5.56e- 78
14 MOK          1309.          -2.73 0.147 -18.5 8.64e- 77 8.67e- 74
15 FEN1          923.          -3.21 0.173 -18.5 1.59e- 76 1.49e- 73
16 DNAJC9       1104.          -2.67 0.148 -18.0 1.03e- 72 9.01e- 70
17 NOP16         674.          -3.05 0.171 -17.9 9.80e- 72 8.09e- 69
18 CEMIP       13660.           2.30 0.129  17.8 1.60e- 70 1.25e- 67
19 OSR2          780.           2.69 0.153  17.6 3.77e- 69 2.78e- 66
20 CCNG1        2450.           2.03 0.116  17.5 1.48e- 68 1.04e- 65
# ... with 19,771 more rows

top 20 genes in SV_DEGs

# A tibble: 19,791 x 7
   X        baseMean log2FoldChange lfcSE  stat    pvalue      padj
   <chr>       <dbl>          <dbl> <dbl> <dbl>     <dbl>     <dbl>
 1 HSPA1A     12715.           5.37 0.120  44.8 0         0        
 2 HSPA1B     11799.           5.66 0.133  42.7 0         0        
 3 DNAJB1      6721.           3.16 0.105  30.2 3.26e-200 1.53e-196
 4 HSPA6       1642.          10.2  0.457  22.2 1.99e-109 6.98e-106
 5 CDC42EP3    3540.          -2.26 0.119 -19.1 3.96e- 81 1.11e- 77
 6 AP2A1       1112.          -3.51 0.192 -18.3 8.44e- 75 1.97e- 71
 7 CD248       3619.          -2.93 0.165 -17.7 2.91e- 70 5.84e- 67
 8 ZYX         3590.          -2.61 0.149 -17.5 1.11e- 68 1.95e- 65
 9 CLK1        1126.           2.72 0.158  17.3 6.80e- 67 1.06e- 63
10 JUN          805.          -3.82 0.230 -16.6 1.20e- 61 1.69e- 58
11 PDXK         601.          -3.06 0.185 -16.5 2.06e- 61 2.41e- 58
12 RGMB        5163.          -2.75 0.166 -16.5 1.97e- 61 2.41e- 58
13 EIF4G1      3627.          -1.92 0.116 -16.5 3.84e- 61 4.15e- 58
14 CAVIN3      2706.          -3.59 0.218 -16.5 4.23e- 61 4.24e- 58
15 RBM42        680.          -4.28 0.271 -15.8 2.98e- 56 2.79e- 53
16 EVA1B        384.          -5.63 0.358 -15.7 7.59e- 56 6.66e- 53
17 PTX3        3037.          -2.95 0.191 -15.5 7.20e- 54 5.95e- 51
18 RALY        1008.          -3.96 0.261 -15.2 4.64e- 52 3.62e- 49
19 EHD3        2004.          -2.00 0.132 -15.2 5.73e- 52 4.02e- 49
20 EPAS1       3274.          -2.94 0.194 -15.2 5.64e- 52 4.02e- 49
# ... with 19,771 more rows

top 20 genes in V_DEGs

# A tibble: 19,791 x 7
   X       baseMean log2FoldChange  lfcSE  stat    pvalue      padj
   <chr>      <dbl>          <dbl>  <dbl> <dbl>     <dbl>     <dbl>
 1 HSPA1A    12715.          4.42  0.120  36.8  1.41e-296 1.49e-292
 2 HSPA1B    11799.          4.74  0.133  35.8  2.42e-280 1.28e-276
 3 DNAJB1     6721.          2.35  0.105  22.4  3.48e-111 1.23e-107
 4 HSPA6      1642.          8.49  0.458  18.6  7.09e- 77 1.88e- 73
 5 CLK1       1126.          2.61  0.158  16.5  3.43e- 61 7.26e- 58
 6 RSRP1       606.          2.96  0.223  13.2  4.56e- 40 8.04e- 37
 7 TENT5A     1972.          1.69  0.149  11.4  4.14e- 30 6.26e- 27
 8 DNAJA1     6504.          1.37  0.135  10.2  2.19e- 24 2.90e- 21
 9 ZFP36L1    2661.         -1.44  0.148  -9.75 1.92e- 22 2.26e- 19
10 HSPH1      1042.          1.63  0.192   8.47 2.52e- 17 2.66e- 14
11 DEDD2       265.          1.84  0.220   8.36 6.22e- 17 5.98e- 14
12 AHSA1      1638.          1.02  0.124   8.21 2.18e- 16 1.93e- 13
13 BAG3        901.          1.39  0.169   8.19 2.58e- 16 2.10e- 13
14 DNAJB4     1133.          1.54  0.191   8.08 6.44e- 16 4.86e- 13
15 ID3        2875.          0.892 0.112   7.98 1.48e- 15 1.04e- 12
16 HSPA8     36077.          0.720 0.0918  7.85 4.22e- 15 2.79e- 12
17 FKBP4      1062.          1.29  0.170   7.58 3.58e- 14 2.23e- 11
18 CACYBP     2516.          0.828 0.113   7.32 2.52e- 13 1.47e- 10
19 KLF6       2567.         -1.07  0.147  -7.31 2.65e- 13 1.47e- 10
20 HSPD1      4793.          0.832 0.117   7.13 1.01e- 12 5.08e- 10
# ... with 19,771 more rows
…
